module cern.ch/eos-kpis

require (
	cloud.google.com/go v0.36.0 // indirect
	dmitri.shuralyov.com/app/changes v0.0.0-20181114035150-5af16e21babb // indirect
	dmitri.shuralyov.com/service/change v0.0.0-20190203163610-217368fe4577 // indirect
	git.apache.org/thrift.git v0.12.0 // indirect
	github.com/Shopify/sarama v1.20.1 // indirect
	github.com/coreos/etcd v3.3.11+incompatible // indirect
	github.com/coreos/go-systemd v0.0.0-20190204112023-081494f7ee4f // indirect
	github.com/go-logfmt/logfmt v0.4.0 // indirect
	github.com/gogo/protobuf v1.2.0 // indirect
	github.com/golang/lint v0.0.0-20181217174547-8f45f776aaf1 // indirect
	github.com/google/pprof v0.0.0-20190109223431-e84dfd68c163 // indirect
	github.com/googleapis/gax-go v2.0.2+incompatible // indirect
	github.com/gopherjs/gopherjs v0.0.0-20181103185306-d547d1d9531e // indirect
	github.com/gorilla/mux v1.7.0 // indirect
	github.com/gregjones/httpcache v0.0.0-20190203031600-7a902570cb17 // indirect
	github.com/grpc-ecosystem/grpc-gateway v1.7.0 // indirect
	github.com/heptiolabs/healthcheck v0.0.0-20180807145615-6ff867650f40
	github.com/microcosm-cc/bluemonday v1.0.2 // indirect
	github.com/openzipkin/zipkin-go v0.1.5 // indirect
	github.com/pkg/errors v0.8.1 // indirect
	github.com/prometheus/client_model v0.0.0-20190129233127-fd36f4220a90 // indirect
	github.com/prometheus/common v0.2.0 // indirect
	github.com/prometheus/procfs v0.0.0-20190203183350-488faf799f86 // indirect
	github.com/russross/blackfriday v2.0.0+incompatible // indirect
	github.com/shurcooL/go v0.0.0-20190121191506-3fef8c783dec // indirect
	github.com/shurcooL/gofontwoff v0.0.0-20181114050219-180f79e6909d // indirect
	github.com/shurcooL/highlight_diff v0.0.0-20181222201841-111da2e7d480 // indirect
	github.com/shurcooL/highlight_go v0.0.0-20181215221002-9d8641ddf2e1 // indirect
	github.com/shurcooL/home v0.0.0-20190204141146-5c8ae21d4240 // indirect
	github.com/shurcooL/htmlg v0.0.0-20190120222857-1e8a37b806f3 // indirect
	github.com/shurcooL/httpfs v0.0.0-20181222201310-74dc9339e414 // indirect
	github.com/shurcooL/issues v0.0.0-20190120000219-08d8dadf8acb // indirect
	github.com/shurcooL/issuesapp v0.0.0-20181229001453-b8198a402c58 // indirect
	github.com/shurcooL/notifications v0.0.0-20181111060504-bcc2b3082a7a // indirect
	github.com/shurcooL/octicon v0.0.0-20181222203144-9ff1a4cf27f4 // indirect
	github.com/shurcooL/reactions v0.0.0-20181222204718-145cd5e7f3d1 // indirect
	github.com/shurcooL/sanitized_anchor_name v1.0.0 // indirect
	github.com/shurcooL/webdavfs v0.0.0-20181215192745-5988b2d638f6 // indirect
	github.com/sirupsen/logrus v1.3.0
	github.com/spf13/afero v1.2.1 // indirect
	github.com/spf13/pflag v1.0.3
	github.com/spf13/viper v1.3.1
	github.com/stretchr/testify v1.3.0 // indirect
	github.com/ugorji/go/codec v0.0.0-20190204201341-e444a5086c43 // indirect
	go.opencensus.io v0.19.0
	go4.org v0.0.0-20181109185143-00e24f1b2599 // indirect
	golang.org/x/build v0.0.0-20190206233927-d375ec2fb6da // indirect
	golang.org/x/crypto v0.0.0-20190131182504-b8fe1690c613 // indirect
	golang.org/x/exp v0.0.0-20190125153040-c74c464bbbf2 // indirect
	golang.org/x/net v0.0.0-20190206173232-65e2d4e15006 // indirect
	golang.org/x/oauth2 v0.0.0-20190130055435-99b60b757ec1 // indirect
	golang.org/x/perf v0.0.0-20190124201629-844a5f5b46f4 // indirect
	golang.org/x/sys v0.0.0-20190204203706-41f3e6584952 // indirect
	golang.org/x/tools v0.0.0-20190206221403-44bcb96178d3 // indirect
	google.golang.org/grpc v1.18.0 // indirect
	honnef.co/go/tools v0.0.0-20190128043916-71123fcbb8fe // indirect
	sourcegraph.com/sqs/pbtypes v1.0.0 // indirect
)
